Journal (reproducible report)
…
library(tidyverse)
library(readxl)
library(lubridate)

1.1.2 Importing Excel data

bikes_c1_tbl <- read_excel(path = "00_data/01_bike_sales/01_raw_data/bikes.xlsx")
orderlines_c1_tbl <- read_excel(path = "00_data/01_bike_sales/01_raw_data/orderlines.xlsx")
bikeshops_c1_tbl  <- read_excel(path = "00_data/01_bike_sales/01_raw_data/bikeshops.xlsx")

1.1.3 Joining data

left_join(orderlines_c1_tbl, bikes_c1_tbl, by = c("product.id" = "bike.id"))

## # A tibble: 15,644 x 15
##    ...1  order.id order.line order.date          customer.id product.id quantity
##    <chr>    <dbl>      <dbl> <dttm>                    <dbl>      <dbl>    <dbl>
##  1 1            1          1 2015-01-07 00:00:00           2       2681        1
##  2 2            1          2 2015-01-07 00:00:00           2       2411        1
##  3 3            2          1 2015-01-10 00:00:00          10       2629        1
##  4 4            2          2 2015-01-10 00:00:00          10       2137        1
##  5 5            3          1 2015-01-10 00:00:00           6       2367        1
##  6 6            3          2 2015-01-10 00:00:00           6       1973        1
##  7 7            3          3 2015-01-10 00:00:00           6       2422        1
##  8 8            3          4 2015-01-10 00:00:00           6       2655        1
##  9 9            3          5 2015-01-10 00:00:00           6       2247        1
## 10 10           4          1 2015-01-11 00:00:00          22       2408        1
## # ... with 15,634 more rows, and 8 more variables: model <chr>,
## #   model.year <dbl>, frame.material <chr>, weight <dbl>, price <dbl>,
## #   category <chr>, gender <chr>, url <chr>
…
#Extract links to individual songs
Links <- a %>%
  map(purrr::pluck, "link") %>%
  as_tibble("Link") %>%
  t()
   
#Finally, bind columns into a table and name them
Playlist <- bind_cols("Song"=Titels, "Album"= Albums, "Artist"=Artists, "Link"=Links)

2.1.4 Data

Playlist

## # A tibble: 175 x 4
##    Song[,1]       Album[,1]                    Artist[,1]     Link[,1]          
##    <chr>          <chr>                        <chr>          <chr>             
##  1 You            MAD MEN (Music used in the ~ The Aquatones  https://www.deeze~
##  2 Mrs.Robinson   60's Party                   The 60's Pop ~ https://www.deeze~
##  3 Gospel         Boxer                        The National   https://www.deeze~
##  4 Between the B~ Kill Rock Stars Sampler 2009 Elliott Smith  https://www.deeze~
##  5 Heroes (1999 ~ Heroes (1999 Remaster)       David Bowie    https://www.deeze~
##  6 It's Too Late  Tapestry (Legacy Edition)    Carole King    https://www.deeze~
##  7 Asleep (2011 ~ The World Won't Listen       The Smiths     https://www.deeze~
##  8 Come On Eileen Too Rye Ay                   Dexys Midnigh~ https://www.deeze~
##  9 Low            Get On With It: The Best Of  Cracker        https://www.deeze~
## 10 Right Here Wa~ Repeat Offender              Richard Marx   https://www.deeze~
## # ... with 165 more rows
…
